tidymodeling - Level 5 classification Tidy Modeling
…
Code

tree_res %>% 
  collect_metrics()

# A tibble: 68 × 8
   cost_complexity tree_depth .metric  .estimator  mean     n std_err .config   
             <dbl>      <int> <chr>    <chr>      <dbl> <int>   <dbl> <chr>     
 1   0.000220              10 accuracy binary     0.772    10  0.0149 Preproces…
 2   0.000220              10 roc_auc  binary     0.821    10  0.0159 Preproces…
 3   0.0000270             11 accuracy binary     0.774    10  0.0142 Preproces…
 4   0.0000270             11 roc_auc  binary     0.824    10  0.0150 Preproces…
 5   0.0000000994          10 accuracy binary     0.764    10  0.0148 Preproces…
 6   0.0000000994          10 roc_auc  binary     0.826    10  0.0147 Preproces…
 7   0.0000000238          12 accuracy binary     0.772    10  0.0145 Preproces…
 8   0.0000000238          12 roc_auc  binary     0.829    10  0.0144 Preproces…
 9   0.00000000920         13 accuracy binary     0.764    10  0.0123 Preproces…
10   0.00000000920         13 roc_auc  binary     0.823    10  0.0164 Preproces…
# ℹ 58 more rows
…
