google analytic in R – Into R
…
>>>>>>> 034811f3eac1a90f3f85df84c1be595d29b7f8d6

Code

sample <- ga_data(
  my_property_id,
  dimensions = c("date","dayOfWeek"),
  metrics = c("activeUsers", "newUsers","sessions", "screenPageViews"),
  date_range = c(from_date, to_date)
) %>% 
arrange(desc(date)) %>% mutate(weekend_date=floor_date(date, "week")+7)

sample

# A tibble: 100 × 7
   date       dayOfWeek activeUsers newUsers sessions screenPageViews
   <date>     <chr>           <dbl>    <dbl>    <dbl>           <dbl>
 1 2024-12-31 2                   2        2        2               2
 2 2024-12-29 0                   2        0        4              11
 3 2024-12-27 5                   2        0        5             215
 4 2024-12-26 4                   2        1        2              23
 5 2024-12-25 3                   3        1       10              37
 6 2024-12-22 0                   2        0        3              39
 7 2024-12-21 6                   2        0        5              20
 8 2024-12-20 5                   4        2        7              63
 9 2024-12-19 4                   2        0       11              39
10 2024-12-18 3                   2        0        7              13
# ℹ 90 more rows
# ℹ 1 more variable: weekend_date <date>
…
