tidymodeling - Level 5 classification Tidy Modeling
…
Code

tree_res %>% 
  collect_metrics()

# A tibble: 144 × 8
   cost_complexity tree_depth .metric  .estimator  mean     n std_err .config   
             <dbl>      <int> <chr>    <chr>      <dbl> <int>   <dbl> <chr>     
 1   0.000104              10 accuracy binary     0.750    10 0.00493 Preproces…
 2   0.000104              10 roc_auc  binary     0.819    10 0.00355 Preproces…
 3   0.00000000437         11 accuracy binary     0.750    10 0.00462 Preproces…
 4   0.00000000437         11 roc_auc  binary     0.819    10 0.00344 Preproces…
 5   0.000000134           15 accuracy binary     0.749    10 0.00488 Preproces…
 6   0.000000134           15 roc_auc  binary     0.815    10 0.00297 Preproces…
 7   0.00000708            12 accuracy binary     0.753    10 0.00507 Preproces…
 8   0.00000708            12 roc_auc  binary     0.819    10 0.00314 Preproces…
 9   0.0000000485           9 accuracy binary     0.750    10 0.0110  Preproces…
10   0.0000000485           9 roc_auc  binary     0.818    10 0.00374 Preproces…
# ℹ 134 more rows
…
