tidymodeling - Tidy Modeling with R
…
lm_form_fit %>% tidy()

# A tibble: 3 × 5
  term        estimate std.error statistic  p.value
  <chr>          <dbl>     <dbl>     <dbl>    <dbl>
1 (Intercept)  -306.      16.0       -19.1 5.69e-75
2 Longitude      -1.99     0.144     -13.9 8.07e-42
3 Latitude        2.97     0.198      15.0 1.89e-48

make PREDICTIONS

lm_form_fit %>% predict(ames_test)

# A tibble: 293 × 1
   .pred
   <dbl>
 1  5.28
 2  5.28
 3  5.28
 4  5.28
 5  5.25
 6  5.24
 7  5.23
 8  5.23
 9  5.32
10  5.32
# ℹ 283 more rows
…
