Tidymodel with R - Classification Model with recipe
…
4 model result

4.1 Evaluate

Code

#mc_cv default is 25
set.seed(1234)
validation_splits <- mc_cv(train_juice, prop = 0.9, strata = target_variable
                           #,times=3
                           )
validation_splits

# Monte Carlo cross-validation (0.9/0.1) with 25 resamples  using stratification 
# A tibble: 25 × 2
   splits             id        
   <list>             <chr>     
 1 <split [5034/560]> Resample01
 2 <split [5034/560]> Resample02
 3 <split [5034/560]> Resample03
 4 <split [5034/560]> Resample04
 5 <split [5034/560]> Resample05
 6 <split [5034/560]> Resample06
 7 <split [5034/560]> Resample07
 8 <split [5034/560]> Resample08
 9 <split [5034/560]> Resample09
10 <split [5034/560]> Resample10
# ℹ 15 more rows
…
