Tidymodel with R - Classification Model with recipe,workflow,tuning
…
Main Arguments:
  cost_complexity = tune()
  tree_depth = tune()

Computational engine: rpart 

Code

tree_grid <- grid_regular(cost_complexity(),
                          tree_depth(),
                          levels = 5)

tree_grid

# A tibble: 25 × 2
   cost_complexity tree_depth
             <dbl>      <int>
 1    0.0000000001          1
 2    0.0000000178          1
 3    0.00000316            1
 4    0.000562              1
 5    0.1                   1
 6    0.0000000001          4
 7    0.0000000178          4
 8    0.00000316            4
 9    0.000562              4
10    0.1                   4
# ℹ 15 more rows
…
Code

tree_res %>% 
  collect_metrics()

# A tibble: 50 × 8
   cost_complexity tree_depth .metric  .estimator  mean     n std_err .config   
             <dbl>      <int> <chr>    <chr>      <dbl> <int>   <dbl> <chr>     
 1    0.0000000001          1 accuracy binary     0.806    10 0.0108  Preproces…
 2    0.0000000001          1 roc_auc  binary     0.686    10 0.00390 Preproces…
 3    0.0000000178          1 accuracy binary     0.806    10 0.0108  Preproces…
 4    0.0000000178          1 roc_auc  binary     0.686    10 0.00390 Preproces…
 5    0.00000316            1 accuracy binary     0.806    10 0.0108  Preproces…
 6    0.00000316            1 roc_auc  binary     0.686    10 0.00390 Preproces…
 7    0.000562              1 accuracy binary     0.806    10 0.0108  Preproces…
 8    0.000562              1 roc_auc  binary     0.686    10 0.00390 Preproces…
 9    0.1                   1 accuracy binary     0.806    10 0.0108  Preproces…
10    0.1                   1 roc_auc  binary     0.686    10 0.00390 Preproces…
# ℹ 40 more rows
…
