Tidymodel with R - Classification Model with recipe,workflow,fast tuning
…
Code

tree_res %>% 
  collect_metrics()

# A tibble: 220 × 8
   cost_complexity tree_depth .metric  .estimator  mean     n std_err .config   
             <dbl>      <int> <chr>    <chr>      <dbl> <int>   <dbl> <chr>     
 1   0.000000126            7 accuracy binary     0.754    10 0.00567 Preproces…
 2   0.000000126            7 roc_auc  binary     0.806    10 0.00583 Preproces…
 3   0.000104              10 accuracy binary     0.762    10 0.00753 Preproces…
 4   0.000104              10 roc_auc  binary     0.815    10 0.00545 Preproces…
 5   0.000369               6 accuracy binary     0.745    10 0.00758 Preproces…
 6   0.000369               6 roc_auc  binary     0.804    10 0.00577 Preproces…
 7   0.00000000437         11 accuracy binary     0.756    10 0.00610 Preproces…
 8   0.00000000437         11 roc_auc  binary     0.817    10 0.00538 Preproces…
 9   0.000000134           15 accuracy binary     0.751    10 0.00305 Preproces…
10   0.000000134           15 roc_auc  binary     0.815    10 0.00499 Preproces…
# ℹ 210 more rows
…
