Tidymodel with R - Regression model
…
Code

lm_fit %>% tidy()

# A tibble: 38 × 5
   term           estimate   std.error statistic  p.value
   <chr>             <dbl>       <dbl>     <dbl>    <dbl>
 1 (Intercept)  678634.    1808073.        0.375 7.07e- 1
 2 Id                1.85        2.81      0.659 5.10e- 1
 3 MSSubClass     -190.         33.7      -5.63  2.29e- 8
 4 LotFrontage      25.1        35.2       0.712 4.77e- 1
 5 LotArea           0.180       0.146     1.23  2.18e- 1
 6 OverallQual   18904.       1515.       12.5   2.69e-33
 7 OverallCond    4588.       1332.        3.44  5.98e- 4
 8 YearBuilt       297.         77.4       3.84  1.30e- 4
 9 YearRemodAdd    123.         84.7       1.45  1.48e- 1
10 MasVnrArea       30.0         7.28      4.12  4.02e- 5
# ℹ 28 more rows
…
Code

lasso_fit %>% tidy()

# A tibble: 38 × 3
   term           estimate penalty
   <chr>             <dbl>   <dbl>
 1 (Intercept)  528464.        0.1
 2 Id                1.65      0.1
 3 MSSubClass     -187.        0.1
 4 LotFrontage      24.0       0.1
 5 LotArea           0.177     0.1
 6 OverallQual   18970.        0.1
 7 OverallCond    4464.        0.1
 8 YearBuilt       290.        0.1
 9 YearRemodAdd    125.        0.1
10 MasVnrArea       29.9       0.1
# ℹ 28 more rows
…
