Tidymodel with R - Regression model with Recipe,workflow,fast tuning
…
library(finetune)
doParallel::registerDoParallel()

lasso_res = model_workflow %>% 
  tune_race_anova(
    resamples = folds,
    grid = lasso_grid,
    control   = cntl
    )

Code

lasso_res %>% collect_metrics()

# A tibble: 100 × 7
    penalty .metric .estimator      mean     n   std_err .config              
      <dbl> <chr>   <chr>          <dbl> <int>     <dbl> <chr>                
 1 1   e-10 rmse    standard   38785.       10 5169.     Preprocessor1_Model01
 2 1   e-10 rsq     standard       0.777    10    0.0433 Preprocessor1_Model01
 3 1.60e-10 rmse    standard   38785.       10 5169.     Preprocessor1_Model02
 4 1.60e-10 rsq     standard       0.777    10    0.0433 Preprocessor1_Model02
 5 2.56e-10 rmse    standard   38785.       10 5169.     Preprocessor1_Model03
 6 2.56e-10 rsq     standard       0.777    10    0.0433 Preprocessor1_Model03
 7 4.09e-10 rmse    standard   38785.       10 5169.     Preprocessor1_Model04
 8 4.09e-10 rsq     standard       0.777    10    0.0433 Preprocessor1_Model04
 9 6.55e-10 rmse    standard   38785.       10 5169.     Preprocessor1_Model05
10 6.55e-10 rsq     standard       0.777    10    0.0433 Preprocessor1_Model05
# ℹ 90 more rows
…
