tidymodeling - Level 4 Regression Tidy Modeling
…
Code

lasso_res = model_workflow %>% 
  tune_grid(
    resamples = folds,
    grid = lasso_grid,
    control   = cntl
    )

Code

lasso_res %>% collect_metrics()

# A tibble: 100 × 7
    penalty .metric .estimator  mean     n std_err .config              
      <dbl> <chr>   <chr>      <dbl> <int>   <dbl> <chr>                
 1 1   e-10 rmse    standard   0.340     1      NA Preprocessor1_Model01
 2 1   e-10 rsq     standard   0.822     1      NA Preprocessor1_Model01
 3 1.60e-10 rmse    standard   0.340     1      NA Preprocessor1_Model02
 4 1.60e-10 rsq     standard   0.822     1      NA Preprocessor1_Model02
 5 2.56e-10 rmse    standard   0.340     1      NA Preprocessor1_Model03
 6 2.56e-10 rsq     standard   0.822     1      NA Preprocessor1_Model03
 7 4.09e-10 rmse    standard   0.340     1      NA Preprocessor1_Model04
 8 4.09e-10 rsq     standard   0.822     1      NA Preprocessor1_Model04
 9 6.55e-10 rmse    standard   0.340     1      NA Preprocessor1_Model05
10 6.55e-10 rsq     standard   0.822     1      NA Preprocessor1_Model05
# ℹ 90 more rows
…
