tidymodeling - Level 3 Regression Tidy Modeling
…
Code

lm_fit %>% tidy()

# A tibble: 38 × 5
   term          estimate std.error statistic  p.value
   <chr>            <dbl>     <dbl>     <dbl>    <dbl>
 1 (Intercept)   5.67e-16    0.0143  3.96e-14 1.00e+ 0
 2 Id            9.56e- 3    0.0145  6.59e- 1 5.10e- 1
 3 MSSubClass   -1.01e- 1    0.0179 -5.63e+ 0 2.29e- 8
 4 LotFrontage   1.13e- 2    0.0158  7.12e- 1 4.77e- 1
 5 LotArea       1.99e- 2    0.0162  1.23e+ 0 2.18e- 1
 6 OverallQual   3.25e- 1    0.0261  1.25e+ 1 2.69e-33
 7 OverallCond   6.25e- 2    0.0182  3.44e+ 0 5.98e- 4
 8 YearBuilt     1.11e- 1    0.0290  3.84e+ 0 1.30e- 4
 9 YearRemodAdd  3.15e- 2    0.0217  1.45e+ 0 1.48e- 1
10 MasVnrArea    7.06e- 2    0.0171  4.12e+ 0 4.02e- 5
# ℹ 28 more rows
…
Code

lasso_fit %>% tidy()

# A tibble: 38 × 3
   term         estimate penalty
   <chr>           <dbl>   <dbl>
 1 (Intercept)  9.98e-17     0.1
 2 Id           0            0.1
 3 MSSubClass   0            0.1
 4 LotFrontage  0            0.1
 5 LotArea      0            0.1
 6 OverallQual  3.79e- 1     0.1
 7 OverallCond  0            0.1
 8 YearBuilt    3.02e- 2     0.1
 9 YearRemodAdd 2.31e- 2     0.1
10 MasVnrArea   2.36e- 2     0.1
# ℹ 28 more rows
…
