Tidymodel with R - Data manipulation with tidyverse
…
Sys.timezone()

[1] "Asia/Shanghai"

4.2 change date format

make multiple column character to date with make_date()

Code

flights %>% 
  select(year, month, day, hour, minute) %>% 
  mutate(departure = make_date(year, month, day))

# A tibble: 336,776 × 6
    year month   day  hour minute departure 
   <int> <int> <int> <dbl>  <dbl> <date>    
 1  2013     1     1     5     15 2013-01-01
 2  2013     1     1     5     29 2013-01-01
 3  2013     1     1     5     40 2013-01-01
 4  2013     1     1     5     45 2013-01-01
 5  2013     1     1     6      0 2013-01-01
 6  2013     1     1     5     58 2013-01-01
 7  2013     1     1     6      0 2013-01-01
 8  2013     1     1     6      0 2013-01-01
 9  2013     1     1     6      0 2013-01-01
10  2013     1     1     6      0 2013-01-01
# ℹ 336,766 more rows

Code

flights %>% 
  select(year, month, day, hour, minute) %>% 
  mutate(departure = make_datetime(year, month, day, hour, minute))

# A tibble: 336,776 × 6
    year month   day  hour minute departure          
   <int> <int> <int> <dbl>  <dbl> <dttm>             
 1  2013     1     1     5     15 2013-01-01 05:15:00
 2  2013     1     1     5     29 2013-01-01 05:29:00
 3  2013     1     1     5     40 2013-01-01 05:40:00
 4  2013     1     1     5     45 2013-01-01 05:45:00
 5  2013     1     1     6      0 2013-01-01 06:00:00
 6  2013     1     1     5     58 2013-01-01 05:58:00
 7  2013     1     1     6      0 2013-01-01 06:00:00
 8  2013     1     1     6      0 2013-01-01 06:00:00
 9  2013     1     1     6      0 2013-01-01 06:00:00
10  2013     1     1     6      0 2013-01-01 06:00:00
# ℹ 336,766 more rows
…
